<?xml version="1.0" encoding="utf-8"?>
<!-- Generator: Adobe Illustrator 19.0.0, SVG Export Plug-In . SVG Version: 6.00 Build 0)  -->
<svg version="1.1" id="Layer_1" xmlns="http://www.w3.org/2000/svg" xmlns:xlink="http://www.w3.org/1999/xlink" x="0px" y="0px"
	 viewBox="0 0 250 250" style="enable-background:new 0 0 250 250;" xml:space="preserve">
<path d="M159.9,179.2c-1.6-4.1-3.7-7.8-6.2-11.2c-7.5-10.2-17.2-17.8-28.3-23.8c-9.9-5.4-20.6-8-31.9-7.5c-1.3,0.1-2.7,0.2-4,0.3
	c-0.8,0-1.2,0.4-1.4,1.2c-5.6,16.7-17,27.2-34.2,30.9c-19.4,4.2-39.4-5.3-48.7-22.9C-8,120.8,5,90,32.3,81.8
	c22.9-6.8,48.3,6,55.6,29.6c0.4,1.3,1,1.6,2.2,1.7c12.6,1.2,24.5-1.5,35.6-7.5c11.7-6.4,22-14.5,29.4-25.8c1.8-2.8,3.3-5.7,5-8.7
	c-1-0.6-1.7-1-2.4-1.5c-10.7-6.3-17.1-15.5-18.8-27.8c-2.3-17,7.7-33.4,24-39.4c20.8-7.6,43.8,4.4,48.9,26
	c4.5,18.9-6.1,39.6-27,44.7c-2,0.5-3.6,1.4-4.4,3.4c-4.3,11.1-11.7,19.9-20.8,27.4c-3.5,2.9-7.3,5.5-10.9,8.2
	c-0.4,0.3-0.8,0.6-1.2,1.2c0.5,0,1,0,1.5,0c8.8,0,17.6-0.1,26.4-0.1c1.6,0,2.4-0.7,2.9-2c1.7-4,3.9-7.7,6.8-10.9
	c5.9-6.8,13.5-10.5,22.3-11.9c20.1-3.2,39.3,10.9,42.3,32.1c2.6,18.3-10.3,36.8-28.5,40.8c-18,4-35.6-5.1-42.6-22.2
	c-0.6-1.5-1.5-2.3-3.2-2.3c-9,0-18.1,0.1-27.1,0.1c-0.2,0-0.4,0.1-0.9,0.1c1,0.7,1.8,1.3,2.6,1.8c7.9,5.4,15.2,11.4,21.2,18.9
	c3.9,4.9,6.8,10.2,9.2,15.9c0.8,1.8,1.9,2.7,3.8,3.2c15.1,3.6,26.1,15.7,28.3,31c2.8,19.8-10.8,38.3-30.6,41.7
	c-20,3.4-39.3-10.3-42.7-30.3c-2.6-15.4,4.6-30.7,18.2-38.5C158.1,180.2,158.9,179.7,159.9,179.2z M212.8,103.5
	c-11.7,0-21.4,9.6-21.5,21.3c0,11.8,9.6,21.6,21.4,21.6c11.8,0.1,21.5-9.7,21.5-21.6C234.2,113.2,224.5,103.5,212.8,103.5z
	 M197.1,212.8c0.1-11.3-9.4-21-20.6-21.4c-11.5-0.4-22,8.7-22.2,20.9c-0.2,11.8,9.1,21.7,20.4,21.9
	C187.4,234.4,196.9,225.2,197.1,212.8z M197.1,37c-0.1-11.9-9.8-21.5-21.4-21.3c-12.1,0.2-21.4,9.7-21.3,21.7
	c0.1,12,9.8,21.3,22.1,21.2C187.7,58.4,197.2,48.6,197.1,37z"/>
</svg>
